Topic Modeling of Child Deaths
…
top_terms <- ap_lda_td %>%
  group_by(topic) %>%
  top_n(30, beta) %>%
  ungroup() %>%
  arrange(topic, -beta)
top_terms

## # A tibble: 659 x 3
##    topic term       beta
##    <int> <chr>     <dbl>
##  1     1 bag      0.0979
##  2     1 trash    0.0686
##  3     1 plastic  0.0637
##  4     1 scene    0.0515
##  5     1 newborn  0.0429
##  6     1 place    0.0429
##  7     1 dumpster 0.0356
##  8     1 cord     0.0307
##  9     1 wrap     0.0307
## 10     1 locat    0.0234
## # ... with 649 more rows
…
